 * Running on http://127.0.0.1:5000/
67831.8110482
Traceback (most recent call last):
  File "flaskServer.py", line 161, in <module>
    app.run(debug=True)
  File "/usr/local/lib/python2.7/dist-packages/flask/app.py", line 772, in run
    run_simple(host, port, self, **options)
  File "/usr/local/lib/python2.7/dist-packages/werkzeug/serving.py", line 706, in run_simple
    test_socket.bind((hostname, port))
  File "/usr/lib/python2.7/socket.py", line 224, in meth
    return getattr(self._sock,name)(*args)
socket.error: [Errno 98] Address already in use
 * Running on http://127.0.0.1:5000/
 * Restarting with reloader
67831.8110482
127.0.0.1 - - [01/Feb/2015 16:04:25] "GET / HTTP/1.1" 200 -
127.0.0.1 - - [01/Feb/2015 16:04:28] "GET / HTTP/1.1" 200 -
127.0.0.1 - - [01/Feb/2015 16:04:29] "GET / HTTP/1.1" 200 -
127.0.0.1 - - [01/Feb/2015 16:04:29] "GET / HTTP/1.1" 200 -
67831.8110482
 * Running on http://127.0.0.1:5000/
 * Restarting with reloader
127.0.0.1 - - [01/Feb/2015 16:13:15] "GET / HTTP/1.1" 200 -
127.0.0.1 - - [01/Feb/2015 16:13:16] "GET / HTTP/1.1" 200 -
127.0.0.1 - - [01/Feb/2015 16:14:02] "POST /user/getevents HTTP/1.1" 200 -
67831.8110482
Connected to DB
Event 123456  not found in eventDB
Event 85168856  not found in eventDB
Event 63957223  not found in eventDB
Event 85022358  not found in eventDB
{'gcmRegId': u'APA91bGq6bLNcikpDuc6yhexfnqriFDt78rv8g4S3zcBeNVulWpcJ2IzPvD5Jsp1rG-sZSIrrG366qa_aMY8liE8jn6H_UZ8Jz0cW-PDGs3xtcdjXM0gfwaBBv3YzSCI4owLcouwdljrInLOat5EnNeSgEVymZyjxs0ZMghgqs3A98Qc2elpzRs', 'errorCode': '0', 'messageType': '3', 'eventList': [{'status': '1', 'name': u'burger party', 'venue': u'burger barn', 'time': u'5:55', 'date': u'04-Jan-2015', 'id': '56012064'}, {'status': '1', 'name': u'eghtch', 'venue': u'fdgj', 'time': u'15:23', 'date': u'16-11-2014', 'id': '52251724'}, {'status': '1', 'name': u'', 'venue': u'', 'time': u'8:56', 'date': u'06-00-2015', 'id': '96033486'}, {'status': '1', 'name': u'April fool', 'venue': u'hq', 'time': u'17:43', 'date': u'01-00-2015', 'id': '41624451'}, {'status': '1', 'name': u'freaking out', 'venue': u'kfc', 'time': u'0:00', 'date': u'07-00-2015', 'id': '71953922'}, {'status': '1', 'name': u'saturdaysaturday', 'venue': u'God night', 'time': u'15:57', 'date': u'23-11-2014', 'id': '56161539'}, {'status': '1', 'name': u'freaky friday', 'venue': u'daru', 'time': u'23:11', 'date': u'11-Jun-2015', 'id': '09570257'}, {'status': '1', 'name': u'welcome rahul', 'venue': u'my home', 'time': u'21:35', 'date': u'14-00-2015', 'id': '47505974'}, {'status': '0', 'name': u'treat ', 'venue': u'mcd', 'time': u'12:36', 'date': u'03-Feb-2015', 'id': '79870787'}, {'status': '1', 'name': u'first event', 'venue': u'my', 'time': u'13:50', 'date': u'18-11-2014', 'id': '56733546'}, {'status': '1', 'name': u'bocha mazha', 'venue': u'hahahahshshshsgshsh', 'time': u'16:8', 'date': u'29-11-2014', 'id': '87302175'}, {'status': '1', 'name': u'big bash', 'venue': u'bhadkamkar bhau house', 'time': u'6:25', 'date': u'20-00-2015', 'id': '86117796'}, {'status': '1', 'name': u'test event ', 'venue': u'kimya', 'time': u'12:50', 'date': u'02-Feb-2015', 'id': '82575495'}, {'status': '1', 'name': u"dood I'm bored", 'venue': u'guttar', 'time': u'16:25', 'date': u'06-00-2015', 'id': '00186759'}, {'status': '1', 'name': u'April fool', 'venue': u'abcd', 'time': u'14:54', 'date': u'01-00-2015', 'id': '43781267'}, {'status': '1', 'name': u'', 'venue': u'', 'time': u'5:34', 'date': u'12-00-2015', 'id': '11090799'}, {'status': '1', 'name': u'some party', 'venue': u'somewhere', 'time': u'0:00', 'date': u'22-00-2015', 'id': '15090412'}, {'status': '1', 'name': u'good event', 'venue': u'abcd', 'time': u'13:16', 'date': u'22-11-2014', 'id': '52767370'}, {'status': '1', 'name': u'bday', 'venue': u'sid', 'time': u'13:39', 'date': u'18-11-2014', 'id': '51308084'}, {'status': '1', 'name': u'wohoo', 'venue': u'goa', 'time': u'5:30', 'date': u'07-Feb-2015', 'id': '21329239'}, {'status': '1', 'name': u'hzdzjdU', 'venue': u'sjzdjzej', 'time': u'15:54', 'date': u'24-4-2014', 'id': '70577532'}, {'status': '1', 'name': u'test2', 'venue': u'olive garden ', 'time': u'16:44', 'date': u'15-Jan-2015', 'id': '54156998'}]}
67831.8110482
